%YAML 1.1
%TAG !u! tag:unity3d.com,2011:
--- !u!74 &7400000
AnimationClip:
  m_ObjectHideFlags: 0
  m_CorrespondingSourceObject: {fileID: 0}
  m_PrefabInstance: {fileID: 0}
  m_PrefabAsset: {fileID: 0}
  m_Name: Recharge
  serializedVersion: 6
  m_Legacy: 0
  m_Compressed: 0
  m_UseHighQualityCurve: 1
  m_RotationCurves: []
  m_CompressedRotationCurves: []
  m_EulerCurves: []
  m_PositionCurves: []
  m_ScaleCurves: []
  m_FloatCurves:
  - curve:
      serializedVersion: 2
      m_Curve:
      - serializedVersion: 3
        time: 0
        value: 0
        inSlope: Infinity
        outSlope: Infinity
        tangentMode: 103
        weightedMode: 0
        inWeight: 0
        outWeight: 0
      - serializedVersion: 3
        time: 0.75
        value: 1
        inSlope: Infinity
        outSlope: Infinity
        tangentMode: 103
        weightedMode: 0
        inWeight: 0
        outWeight: 0
      m_PreInfinity: 2
      m_PostInfinity: 2
      m_RotationOrder: 4
    attribute: m_Enabled
    path: BossKiller
    classID: 61
    script: {fileID: 0}
  - curve:
      serializedVersion: 2
      m_Curve:
      - serializedVersion: 3
        time: 0
        value: 1
        inSlope: Infinity
        outSlope: Infinity
        tangentMode: 103
        weightedMode: 0
        inWeight: 0
        outWeight: 0
      - serializedVersion: 3
        time: 3.125
        value: 0
        inSlope: Infinity
        outSlope: Infinity
        tangentMode: 103
        weightedMode: 0
        inWeight: 0
        outWeight: 0
      m_PreInfinity: 2
      m_PostInfinity: 2
      m_RotationOrder: 4
    attribute: stopBoss
    path: 
    classID: 114
    script: {fileID: 11500000, guid: 1ad10904c6a90704e8f91e8ccb3dab66, type: 3}
  - curve:
      serializedVersion: 2
      m_Curve:
      - serializedVersion: 3
        time: 0
        value: -1.6071086
        inSlope: 0
        outSlope: 0
        tangentMode: 136
        weightedMode: 0
        inWeight: 0.33333334
        outWeight: 0.33333334
      - serializedVersion: 3
        time: 0.75
        value: -2.109859
        inSlope: 0
        outSlope: 0
        tangentMode: 136
        weightedMode: 0
        inWeight: 0.33333334
        outWeight: 0.33333334
      m_PreInfinity: 2
      m_PostInfinity: 2
      m_RotationOrder: 4
    attribute: m_Offset.y
    path: BossKiller
    classID: 61
    script: {fileID: 0}
  - curve:
      serializedVersion: 2
      m_Curve:
      - serializedVersion: 3
        time: 0
        value: 2.8817492
        inSlope: 0
        outSlope: 0
        tangentMode: 136
        weightedMode: 0
        inWeight: 0.33333334
        outWeight: 0.33333334
      - serializedVersion: 3
        time: 0.75
        value: 3.88725
        inSlope: 0
        outSlope: 0
        tangentMode: 136
        weightedMode: 0
        inWeight: 0.33333334
        outWeight: 0.33333334
      m_PreInfinity: 2
      m_PostInfinity: 2
      m_RotationOrder: 4
    attribute: m_Size.y
    path: BossKiller
    classID: 61
    script: {fileID: 0}
  - curve:
      serializedVersion: 2
      m_Curve:
      - serializedVersion: 3
        time: 0
        value: 14.753403
        inSlope: 0
        outSlope: 0
        tangentMode: 136
        weightedMode: 0
        inWeight: 0.33333334
        outWeight: 0.33333334
      - serializedVersion: 3
        time: 0.75
        value: 13.812759
        inSlope: 0
        outSlope: 0
        tangentMode: 136
        weightedMode: 0
        inWeight: 0.33333334
        outWeight: 0.33333334
      m_PreInfinity: 2
      m_PostInfinity: 2
      m_RotationOrder: 4
    attribute: m_Offset.x
    path: BossKiller
    classID: 61
    script: {fileID: 0}
  - curve:
      serializedVersion: 2
      m_Curve:
      - serializedVersion: 3
        time: 0
        value: 2.7044373
        inSlope: 0
        outSlope: 0
        tangentMode: 136
        weightedMode: 0
        inWeight: 0.33333334
        outWeight: 0.33333334
      - serializedVersion: 3
        time: 0.75
        value: 2.2503357
        inSlope: 0
        outSlope: 0
        tangentMode: 136
        weightedMode: 0
        inWeight: 0.33333334
        outWeight: 0.33333334
      m_PreInfinity: 2
      m_PostInfinity: 2
      m_RotationOrder: 4
    attribute: m_Size.x
    path: BossKiller
    classID: 61
    script: {fileID: 0}
  m_PPtrCurves:
  - curve:
    - time: 0
      value: {fileID: -6570554374267382399, guid: 03584791d3ac36544ab231a1f0017ce2,
        type: 3}
    - time: 0.125
      value: {fileID: 6535151585631200430, guid: 03584791d3ac36544ab231a1f0017ce2,
        type: 3}
    - time: 0.25
      value: {fileID: 8945239416049546864, guid: 03584791d3ac36544ab231a1f0017ce2,
        type: 3}
    - time: 0.375
      value: {fileID: 844910054622677193, guid: 03584791d3ac36544ab231a1f0017ce2,
        type: 3}
    - time: 0.5
      value: {fileID: -8205367865880730441, guid: 03584791d3ac36544ab231a1f0017ce2,
        type: 3}
    - time: 0.625
      value: {fileID: 1657038211776033012, guid: 03584791d3ac36544ab231a1f0017ce2,
        type: 3}
    - time: 0.75
      value: {fileID: 5061399430218657867, guid: 03584791d3ac36544ab231a1f0017ce2,
        type: 3}
    - time: 0.875
      value: {fileID: 6204848714491907988, guid: 03584791d3ac36544ab231a1f0017ce2,
        type: 3}
    - time: 1
      value: {fileID: 2803790985181711035, guid: 03584791d3ac36544ab231a1f0017ce2,
        type: 3}
    - time: 1.125
      value: {fileID: 1657038211776033012, guid: 03584791d3ac36544ab231a1f0017ce2,
        type: 3}
    - time: 1.25
      value: {fileID: 2803790985181711035, guid: 03584791d3ac36544ab231a1f0017ce2,
        type: 3}
    - time: 1.375
      value: {fileID: 6204848714491907988, guid: 03584791d3ac36544ab231a1f0017ce2,
        type: 3}
    - time: 1.5
      value: {fileID: 5061399430218657867, guid: 03584791d3ac36544ab231a1f0017ce2,
        type: 3}
    - time: 1.625
      value: {fileID: 1657038211776033012, guid: 03584791d3ac36544ab231a1f0017ce2,
        type: 3}
    - time: 1.75
      value: {fileID: 5061399430218657867, guid: 03584791d3ac36544ab231a1f0017ce2,
        type: 3}
    - time: 1.875
      value: {fileID: 6204848714491907988, guid: 03584791d3ac36544ab231a1f0017ce2,
        type: 3}
    - time: 2
      value: {fileID: 2803790985181711035, guid: 03584791d3ac36544ab231a1f0017ce2,
        type: 3}
    - time: 2.125
      value: {fileID: 1657038211776033012, guid: 03584791d3ac36544ab231a1f0017ce2,
        type: 3}
    - time: 2.25
      value: {fileID: 2803790985181711035, guid: 03584791d3ac36544ab231a1f0017ce2,
        type: 3}
    - time: 2.375
      value: {fileID: 6204848714491907988, guid: 03584791d3ac36544ab231a1f0017ce2,
        type: 3}
    - time: 2.5
      value: {fileID: 5061399430218657867, guid: 03584791d3ac36544ab231a1f0017ce2,
        type: 3}
    - time: 2.625
      value: {fileID: 1657038211776033012, guid: 03584791d3ac36544ab231a1f0017ce2,
        type: 3}
    - time: 2.75
      value: {fileID: 5061399430218657867, guid: 03584791d3ac36544ab231a1f0017ce2,
        type: 3}
    - time: 2.875
      value: {fileID: 6204848714491907988, guid: 03584791d3ac36544ab231a1f0017ce2,
        type: 3}
    - time: 3
      value: {fileID: 2803790985181711035, guid: 03584791d3ac36544ab231a1f0017ce2,
        type: 3}
    - time: 3.125
      value: {fileID: 1657038211776033012, guid: 03584791d3ac36544ab231a1f0017ce2,
        type: 3}
    attribute: m_Sprite
    path: 
    classID: 212
    script: {fileID: 0}
  m_SampleRate: 8
  m_WrapMode: 0
  m_Bounds:
    m_Center: {x: 0, y: 0, z: 0}
    m_Extent: {x: 0, y: 0, z: 0}
  m_ClipBindingConstant:
    genericBindings:
    - serializedVersion: 2
      path: 1648474053
      attribute: 3305885265
      script: {fileID: 0}
      typeID: 61
      customType: 0
      isPPtrCurve: 0
    - serializedVersion: 2
      path: 0
      attribute: 3760387706
      script: {fileID: 11500000, guid: 1ad10904c6a90704e8f91e8ccb3dab66, type: 3}
      typeID: 114
      customType: 0
      isPPtrCurve: 0
    - serializedVersion: 2
      path: 1648474053
      attribute: 1872933342
      script: {fileID: 0}
      typeID: 61
      customType: 0
      isPPtrCurve: 0
    - serializedVersion: 2
      path: 1648474053
      attribute: 2368279999
      script: {fileID: 0}
      typeID: 61
      customType: 0
      isPPtrCurve: 0
    - serializedVersion: 2
      path: 1648474053
      attribute: 413499720
      script: {fileID: 0}
      typeID: 61
      customType: 0
      isPPtrCurve: 0
    - serializedVersion: 2
      path: 1648474053
      attribute: 4197328169
      script: {fileID: 0}
      typeID: 61
      customType: 0
      isPPtrCurve: 0
    - serializedVersion: 2
      path: 0
      attribute: 0
      script: {fileID: 0}
      typeID: 212
      customType: 23
      isPPtrCurve: 1
    pptrCurveMapping:
    - {fileID: -6570554374267382399, guid: 03584791d3ac36544ab231a1f0017ce2, type: 3}
    - {fileID: 6535151585631200430, guid: 03584791d3ac36544ab231a1f0017ce2, type: 3}
    - {fileID: 8945239416049546864, guid: 03584791d3ac36544ab231a1f0017ce2, type: 3}
    - {fileID: 844910054622677193, guid: 03584791d3ac36544ab231a1f0017ce2, type: 3}
    - {fileID: -8205367865880730441, guid: 03584791d3ac36544ab231a1f0017ce2, type: 3}
    - {fileID: 1657038211776033012, guid: 03584791d3ac36544ab231a1f0017ce2, type: 3}
    - {fileID: 5061399430218657867, guid: 03584791d3ac36544ab231a1f0017ce2, type: 3}
    - {fileID: 6204848714491907988, guid: 03584791d3ac36544ab231a1f0017ce2, type: 3}
    - {fileID: 2803790985181711035, guid: 03584791d3ac36544ab231a1f0017ce2, type: 3}
    - {fileID: 1657038211776033012, guid: 03584791d3ac36544ab231a1f0017ce2, type: 3}
    - {fileID: 2803790985181711035, guid: 03584791d3ac36544ab231a1f0017ce2, type: 3}
    - {fileID: 6204848714491907988, guid: 03584791d3ac36544ab231a1f0017ce2, type: 3}
    - {fileID: 5061399430218657867, guid: 03584791d3ac36544ab231a1f0017ce2, type: 3}
    - {fileID: 1657038211776033012, guid: 03584791d3ac36544ab231a1f0017ce2, type: 3}
    - {fileID: 5061399430218657867, guid: 03584791d3ac36544ab231a1f0017ce2, type: 3}
    - {fileID: 6204848714491907988, guid: 03584791d3ac36544ab231a1f0017ce2, type: 3}
    - {fileID: 2803790985181711035, guid: 03584791d3ac36544ab231a1f0017ce2, type: 3}
    - {fileID: 1657038211776033012, guid: 03584791d3ac36544ab231a1f0017ce2, type: 3}
    - {fileID: 2803790985181711035, guid: 03584791d3ac36544ab231a1f0017ce2, type: 3}
    - {fileID: 6204848714491907988, guid: 03584791d3ac36544ab231a1f0017ce2, type: 3}
    - {fileID: 5061399430218657867, guid: 03584791d3ac36544ab231a1f0017ce2, type: 3}
    - {fileID: 1657038211776033012, guid: 03584791d3ac36544ab231a1f0017ce2, type: 3}
    - {fileID: 5061399430218657867, guid: 03584791d3ac36544ab231a1f0017ce2, type: 3}
    - {fileID: 6204848714491907988, guid: 03584791d3ac36544ab231a1f0017ce2, type: 3}
    - {fileID: 2803790985181711035, guid: 03584791d3ac36544ab231a1f0017ce2, type: 3}
    - {fileID: 1657038211776033012, guid: 03584791d3ac36544ab231a1f0017ce2, type: 3}
  m_AnimationClipSettings:
    serializedVersion: 2
    m_AdditiveReferencePoseClip: {fileID: 0}
    m_AdditiveReferencePoseTime: 0
    m_StartTime: 0
    m_StopTime: 3.25
    m_OrientationOffsetY: 0
    m_Level: 0
    m_CycleOffset: 0
    m_HasAdditiveReferencePose: 0
    m_LoopTime: 0
    m_LoopBlend: 0
    m_LoopBlendOrientation: 0
    m_LoopBlendPositionY: 0
    m_LoopBlendPositionXZ: 0
    m_KeepOriginalOrientation: 0
    m_KeepOriginalPositionY: 1
    m_KeepOriginalPositionXZ: 0
    m_HeightFromFeet: 0
    m_Mirror: 0
  m_EditorCurves:
  - curve:
      serializedVersion: 2
      m_Curve:
      - serializedVersion: 3
        time: 0
        value: 0
        inSlope: Infinity
        outSlope: Infinity
        tangentMode: 103
        weightedMode: 0
        inWeight: 0
        outWeight: 0
      - serializedVersion: 3
        time: 0.75
        value: 1
        inSlope: Infinity
        outSlope: Infinity
        tangentMode: 103
        weightedMode: 0
        inWeight: 0
        outWeight: 0
      m_PreInfinity: 2
      m_PostInfinity: 2
      m_RotationOrder: 4
    attribute: m_Enabled
    path: BossKiller
    classID: 61
    script: {fileID: 0}
  - curve:
      serializedVersion: 2
      m_Curve:
      - serializedVersion: 3
        time: 0
        value: 1
        inSlope: Infinity
        outSlope: Infinity
        tangentMode: 103
        weightedMode: 0
        inWeight: 0
        outWeight: 0
      - serializedVersion: 3
        time: 3.125
        value: 0
        inSlope: Infinity
        outSlope: Infinity
        tangentMode: 103
        weightedMode: 0
        inWeight: 0
        outWeight: 0
      m_PreInfinity: 2
      m_PostInfinity: 2
      m_RotationOrder: 4
    attribute: stopBoss
    path: 
    classID: 114
    script: {fileID: 11500000, guid: 1ad10904c6a90704e8f91e8ccb3dab66, type: 3}
  - curve:
      serializedVersion: 2
      m_Curve:
      - serializedVersion: 3
        time: 0
        value: -1.6071086
        inSlope: 0
        outSlope: 0
        tangentMode: 136
        weightedMode: 0
        inWeight: 0.33333334
        outWeight: 0.33333334
      - serializedVersion: 3
        time: 0.75
        value: -2.109859
        inSlope: 0
        outSlope: 0
        tangentMode: 136
        weightedMode: 0
        inWeight: 0.33333334
        outWeight: 0.33333334
      m_PreInfinity: 2
      m_PostInfinity: 2
      m_RotationOrder: 4
    attribute: m_Offset.y
    path: BossKiller
    classID: 61
    script: {fileID: 0}
  - curve:
      serializedVersion: 2
      m_Curve:
      - serializedVersion: 3
        time: 0
        value: 2.8817492
        inSlope: 0
        outSlope: 0
        tangentMode: 136
        weightedMode: 0
        inWeight: 0.33333334
        outWeight: 0.33333334
      - serializedVersion: 3
        time: 0.75
        value: 3.88725
        inSlope: 0
        outSlope: 0
        tangentMode: 136
        weightedMode: 0
        inWeight: 0.33333334
        outWeight: 0.33333334
      m_PreInfinity: 2
      m_PostInfinity: 2
      m_RotationOrder: 4
    attribute: m_Size.y
    path: BossKiller
    classID: 61
    script: {fileID: 0}
  - curve:
      serializedVersion: 2
      m_Curve:
      - serializedVersion: 3
        time: 0
        value: 14.753403
        inSlope: 0
        outSlope: 0
        tangentMode: 136
        weightedMode: 0
        inWeight: 0.33333334
        outWeight: 0.33333334
      - serializedVersion: 3
        time: 0.75
        value: 13.812759
        inSlope: 0
        outSlope: 0
        tangentMode: 136
        weightedMode: 0
        inWeight: 0.33333334
        outWeight: 0.33333334
      m_PreInfinity: 2
      m_PostInfinity: 2
      m_RotationOrder: 4
    attribute: m_Offset.x
    path: BossKiller
    classID: 61
    script: {fileID: 0}
  - curve:
      serializedVersion: 2
      m_Curve:
      - serializedVersion: 3
        time: 0
        value: 2.7044373
        inSlope: 0
        outSlope: 0
        tangentMode: 136
        weightedMode: 0
        inWeight: 0.33333334
        outWeight: 0.33333334
      - serializedVersion: 3
        time: 0.75
        value: 2.2503357
        inSlope: 0
        outSlope: 0
        tangentMode: 136
        weightedMode: 0
        inWeight: 0.33333334
        outWeight: 0.33333334
      m_PreInfinity: 2
      m_PostInfinity: 2
      m_RotationOrder: 4
    attribute: m_Size.x
    path: BossKiller
    classID: 61
    script: {fileID: 0}
  m_EulerEditorCurves: []
  m_HasGenericRootTransform: 0
  m_HasMotionFloatCurves: 0
  m_Events:
  - time: 0
    functionName: SoundStandBy
    data: 
    objectReferenceParameter: {fileID: 0}
    floatParameter: 0
    intParameter: 0
    messageOptions: 0
