%YAML 1.1
%TAG !u! tag:unity3d.com,2011:
--- !u!74 &7400000
AnimationClip:
  m_ObjectHideFlags: 0
  m_CorrespondingSourceObject: {fileID: 0}
  m_PrefabInstance: {fileID: 0}
  m_PrefabAsset: {fileID: 0}
  m_Name: Walk
  serializedVersion: 6
  m_Legacy: 0
  m_Compressed: 0
  m_UseHighQualityCurve: 1
  m_RotationCurves: []
  m_CompressedRotationCurves: []
  m_EulerCurves: []
  m_PositionCurves: []
  m_ScaleCurves: []
  m_FloatCurves: []
  m_PPtrCurves:
  - curve:
    - time: 0
      value: {fileID: -1694473971481026387, guid: 03584791d3ac36544ab231a1f0017ce2,
        type: 3}
    - time: 0.16666667
      value: {fileID: -3721526176478030818, guid: 03584791d3ac36544ab231a1f0017ce2,
        type: 3}
    - time: 0.33333334
      value: {fileID: 521909895785490082, guid: 03584791d3ac36544ab231a1f0017ce2,
        type: 3}
    - time: 0.5
      value: {fileID: -5249210919989782462, guid: 03584791d3ac36544ab231a1f0017ce2,
        type: 3}
    - time: 0.6666667
      value: {fileID: -3220081052477772999, guid: 03584791d3ac36544ab231a1f0017ce2,
        type: 3}
    - time: 0.8333333
      value: {fileID: 4005922858568531363, guid: 03584791d3ac36544ab231a1f0017ce2,
        type: 3}
    - time: 1
      value: {fileID: -5292164610480255968, guid: 03584791d3ac36544ab231a1f0017ce2,
        type: 3}
    - time: 1.1666666
      value: {fileID: 6655552356973427872, guid: 03584791d3ac36544ab231a1f0017ce2,
        type: 3}
    attribute: m_Sprite
    path: 
    classID: 212
    script: {fileID: 0}
  m_SampleRate: 6
  m_WrapMode: 0
  m_Bounds:
    m_Center: {x: 0, y: 0, z: 0}
    m_Extent: {x: 0, y: 0, z: 0}
  m_ClipBindingConstant:
    genericBindings:
    - serializedVersion: 2
      path: 0
      attribute: 0
      script: {fileID: 0}
      typeID: 212
      customType: 23
      isPPtrCurve: 1
    pptrCurveMapping:
    - {fileID: -1694473971481026387, guid: 03584791d3ac36544ab231a1f0017ce2, type: 3}
    - {fileID: -3721526176478030818, guid: 03584791d3ac36544ab231a1f0017ce2, type: 3}
    - {fileID: 521909895785490082, guid: 03584791d3ac36544ab231a1f0017ce2, type: 3}
    - {fileID: -5249210919989782462, guid: 03584791d3ac36544ab231a1f0017ce2, type: 3}
    - {fileID: -3220081052477772999, guid: 03584791d3ac36544ab231a1f0017ce2, type: 3}
    - {fileID: 4005922858568531363, guid: 03584791d3ac36544ab231a1f0017ce2, type: 3}
    - {fileID: -5292164610480255968, guid: 03584791d3ac36544ab231a1f0017ce2, type: 3}
    - {fileID: 6655552356973427872, guid: 03584791d3ac36544ab231a1f0017ce2, type: 3}
  m_AnimationClipSettings:
    serializedVersion: 2
    m_AdditiveReferencePoseClip: {fileID: 0}
    m_AdditiveReferencePoseTime: 0
    m_StartTime: 0
    m_StopTime: 1.3333333
    m_OrientationOffsetY: 0
    m_Level: 0
    m_CycleOffset: 0
    m_HasAdditiveReferencePose: 0
    m_LoopTime: 1
    m_LoopBlend: 0
    m_LoopBlendOrientation: 0
    m_LoopBlendPositionY: 0
    m_LoopBlendPositionXZ: 0
    m_KeepOriginalOrientation: 0
    m_KeepOriginalPositionY: 1
    m_KeepOriginalPositionXZ: 0
    m_HeightFromFeet: 0
    m_Mirror: 0
  m_EditorCurves: []
  m_EulerEditorCurves: []
  m_HasGenericRootTransform: 0
  m_HasMotionFloatCurves: 0
  m_Events:
  - time: 0.16666667
    functionName: SoundStep
    data: 
    objectReferenceParameter: {fileID: 0}
    floatParameter: 0
    intParameter: 0
    messageOptions: 0
  - time: 0.33333334
    functionName: SoundLeg
    data: 
    objectReferenceParameter: {fileID: 0}
    floatParameter: 0
    intParameter: 0
    messageOptions: 0
  - time: 0.8333333
    functionName: SoundStep
    data: 
    objectReferenceParameter: {fileID: 0}
    floatParameter: 0
    intParameter: 0
    messageOptions: 0
  - time: 1
    functionName: SoundLeg
    data: 
    objectReferenceParameter: {fileID: 0}
    floatParameter: 0
    intParameter: 0
    messageOptions: 0
