%YAML 1.1
%TAG !u! tag:unity3d.com,2011:
--- !u!74 &7400000
AnimationClip:
  m_ObjectHideFlags: 0
  m_CorrespondingSourceObject: {fileID: 0}
  m_PrefabInstance: {fileID: 0}
  m_PrefabAsset: {fileID: 0}
  m_Name: Idle
  serializedVersion: 6
  m_Legacy: 0
  m_Compressed: 0
  m_UseHighQualityCurve: 1
  m_RotationCurves: []
  m_CompressedRotationCurves: []
  m_EulerCurves: []
  m_PositionCurves: []
  m_ScaleCurves: []
  m_FloatCurves: []
  m_PPtrCurves:
  - curve:
    - time: 0
      value: {fileID: 6785330501484731489, guid: 11258e83cec72ac4d882f1ebf5909220,
        type: 3}
    - time: 0.1
      value: {fileID: -6788403091606165106, guid: 11258e83cec72ac4d882f1ebf5909220,
        type: 3}
    - time: 0.2
      value: {fileID: -1105712422026411778, guid: 11258e83cec72ac4d882f1ebf5909220,
        type: 3}
    - time: 0.3
      value: {fileID: -5298148878244551340, guid: 11258e83cec72ac4d882f1ebf5909220,
        type: 3}
    - time: 0.4
      value: {fileID: 1773068972346501806, guid: 11258e83cec72ac4d882f1ebf5909220,
        type: 3}
    - time: 0.5
      value: {fileID: 2999576526592108783, guid: 11258e83cec72ac4d882f1ebf5909220,
        type: 3}
    - time: 0.6
      value: {fileID: 848268504189534955, guid: 11258e83cec72ac4d882f1ebf5909220,
        type: 3}
    - time: 0.7
      value: {fileID: -5298181665694140030, guid: 11258e83cec72ac4d882f1ebf5909220,
        type: 3}
    - time: 0.8
      value: {fileID: -8919782725361809525, guid: 11258e83cec72ac4d882f1ebf5909220,
        type: 3}
    - time: 0.9
      value: {fileID: -4786006383058936373, guid: 11258e83cec72ac4d882f1ebf5909220,
        type: 3}
    - time: 1
      value: {fileID: 4952799519293479457, guid: 11258e83cec72ac4d882f1ebf5909220,
        type: 3}
    - time: 1.1
      value: {fileID: -2924384779099156482, guid: 11258e83cec72ac4d882f1ebf5909220,
        type: 3}
    - time: 1.2
      value: {fileID: 6280697352874273016, guid: 11258e83cec72ac4d882f1ebf5909220,
        type: 3}
    - time: 1.3
      value: {fileID: 637938816517841819, guid: 11258e83cec72ac4d882f1ebf5909220,
        type: 3}
    attribute: m_Sprite
    path: 
    classID: 212
    script: {fileID: 0}
  m_SampleRate: 10
  m_WrapMode: 0
  m_Bounds:
    m_Center: {x: 0, y: 0, z: 0}
    m_Extent: {x: 0, y: 0, z: 0}
  m_ClipBindingConstant:
    genericBindings:
    - serializedVersion: 2
      path: 0
      attribute: 0
      script: {fileID: 0}
      typeID: 212
      customType: 23
      isPPtrCurve: 1
    pptrCurveMapping:
    - {fileID: 6785330501484731489, guid: 11258e83cec72ac4d882f1ebf5909220, type: 3}
    - {fileID: -6788403091606165106, guid: 11258e83cec72ac4d882f1ebf5909220, type: 3}
    - {fileID: -1105712422026411778, guid: 11258e83cec72ac4d882f1ebf5909220, type: 3}
    - {fileID: -5298148878244551340, guid: 11258e83cec72ac4d882f1ebf5909220, type: 3}
    - {fileID: 1773068972346501806, guid: 11258e83cec72ac4d882f1ebf5909220, type: 3}
    - {fileID: 2999576526592108783, guid: 11258e83cec72ac4d882f1ebf5909220, type: 3}
    - {fileID: 848268504189534955, guid: 11258e83cec72ac4d882f1ebf5909220, type: 3}
    - {fileID: -5298181665694140030, guid: 11258e83cec72ac4d882f1ebf5909220, type: 3}
    - {fileID: -8919782725361809525, guid: 11258e83cec72ac4d882f1ebf5909220, type: 3}
    - {fileID: -4786006383058936373, guid: 11258e83cec72ac4d882f1ebf5909220, type: 3}
    - {fileID: 4952799519293479457, guid: 11258e83cec72ac4d882f1ebf5909220, type: 3}
    - {fileID: -2924384779099156482, guid: 11258e83cec72ac4d882f1ebf5909220, type: 3}
    - {fileID: 6280697352874273016, guid: 11258e83cec72ac4d882f1ebf5909220, type: 3}
    - {fileID: 637938816517841819, guid: 11258e83cec72ac4d882f1ebf5909220, type: 3}
  m_AnimationClipSettings:
    serializedVersion: 2
    m_AdditiveReferencePoseClip: {fileID: 0}
    m_AdditiveReferencePoseTime: 0
    m_StartTime: 0
    m_StopTime: 1.4
    m_OrientationOffsetY: 0
    m_Level: 0
    m_CycleOffset: 0
    m_HasAdditiveReferencePose: 0
    m_LoopTime: 1
    m_LoopBlend: 0
    m_LoopBlendOrientation: 0
    m_LoopBlendPositionY: 0
    m_LoopBlendPositionXZ: 0
    m_KeepOriginalOrientation: 0
    m_KeepOriginalPositionY: 1
    m_KeepOriginalPositionXZ: 0
    m_HeightFromFeet: 0
    m_Mirror: 0
  m_EditorCurves: []
  m_EulerEditorCurves: []
  m_HasGenericRootTransform: 0
  m_HasMotionFloatCurves: 0
  m_Events: []
